%YAML 1.1
%TAG !u! tag:unity3d.com,2011:
--- !u!114 &11400000
MonoBehaviour:
  m_ObjectHideFlags: 0
  m_CorrespondingSourceObject: {fileID: 0}
  m_PrefabInstance: {fileID: 0}
  m_PrefabAsset: {fileID: 0}
  m_GameObject: {fileID: 0}
  m_Enabled: 1
  m_EditorHideFlags: 0
  m_Script: {fileID: 11500000, guid: 5ffb9e62ba4887a4f97db6444a8f4c4b, type: 3}
  m_Name: Shoes of Sonic
  m_EditorClassIdentifier: 
  itemName: Shoes of Sonic
  itemID: 1
  icon: {fileID: 0}
  cost: 15
